Bin_name,GGZHx0x75PTVx0J,GGZHx0x75PTVx1J,GGZHx0x75PTVxGE2J,GGZHx150x250PTVx0J,GGZHx150x250PTVx1J,GGZHx150x250PTVxGE2J,GGZHx250x400PTVx0J,GGZHx250x400PTVx1J,GGZHx250x400PTVxGE2J,GGZHx400x600PTVx0J,GGZHx400x600PTVx1J,GGZHx400x600PTVxGE2J,GGZHx75x150PTVx0J,GGZHx75x150PTVx1J,GGZHx75x150PTVxGE2J,GGZHxGT600PTVx0J,GGZHxGT600PTVx1J,GGZHxGT600PTVxGE2J,QQWHx0x75PTVx0J,QQWHx0x75PTVx1J,QQWHx0x75PTVxGE2J,QQWHx150x250PTVx0J,QQWHx150x250PTVx1J,QQWHx150x250PTVxGE2J,QQWHx250x400PTVx0J,QQWHx250x400PTVx1J,QQWHx250x400PTVxGE2J,QQWHx400x600PTVx0J,QQWHx400x600PTVx1J,QQWHx400x600PTVxGE2J,QQWHx75x150PTVx0J,QQWHx75x150PTVx1J,QQWHx75x150PTVxGE2J,QQWHxGT600PTVx0J,QQWHxGT600PTVx1J,QQWHxGT600PTVxGE2J,QQZHx0x75PTVx0J,QQZHx0x75PTVx1J,QQZHx0x75PTVxGE2J,QQZHx150x250PTVx0J,QQZHx150x250PTVx1J,QQZHx150x250PTVxGE2J,QQZHx250x400PTVx0J,QQZHx250x400PTVx1J,QQZHx250x400PTVxGE2J,QQZHx400x600PTVx0J,QQZHx400x600PTVx1J,QQZHx400x600PTVxGE2J,QQZHx75x150PTVx0J,QQZHx75x150PTVx1J,QQZHx75x150PTVxGE2J,QQZHxGT600PTVx0J,QQZHxGT600PTVx1J,QQZHxGT600PTVxGE2J
SysTheoryQCDScaleDelta150_ggVH,0.00,0.00,0.00,13.29,13.29,13.29,13.29,13.29,13.29,13.29,13.29,13.29,-5.57,-5.57,-5.57,13.29,13.29,13.29,0.00,0.00,0.00,0.00,0.00,0.00,0.00,0.00,0.00,0.00,0.00,0.00,0.00,0.00,0.00,0.00,0.00,0.00,0.00,0.00,0.00,0.00,0.00,0.00,0.00,0.00,0.00,0.00,0.00,0.00,0.00,0.00,0.00,0.00,0.00,0.00
SysTheoryQCDScaleDelta150_qqVH,0.00,0.00,0.00,0.00,0.00,0.00,0.00,0.00,0.00,0.00,0.00,0.00,0.00,0.00,0.00,0.00,0.00,0.00,0.00,0.00,0.00,1.35,1.35,1.35,1.35,1.35,1.35,1.35,1.35,1.35,-0.38,-0.38,-0.38,1.35,1.35,1.35,0.00,0.00,0.00,1.37,1.37,1.37,1.37,1.37,1.37,1.37,1.37,1.37,-0.40,-0.40,-0.40,1.37,1.37,1.37
SysTheoryQCDScaleDelta250_ggVH,0.00,0.00,0.00,-2.31,-2.31,-2.31,14.02,14.02,14.02,14.02,14.02,14.02,0.00,0.00,0.00,14.02,14.02,14.02,0.00,0.00,0.00,0.00,0.00,0.00,0.00,0.00,0.00,0.00,0.00,0.00,0.00,0.00,0.00,0.00,0.00,0.00,0.00,0.00,0.00,0.00,0.00,0.00,0.00,0.00,0.00,0.00,0.00,0.00,0.00,0.00,0.00,0.00,0.00,0.00
SysTheoryQCDScaleDelta250_qqVH,0.00,0.00,0.00,0.00,0.00,0.00,0.00,0.00,0.00,0.00,0.00,0.00,0.00,0.00,0.00,0.00,0.00,0.00,0.00,0.00,0.00,-0.32,-0.32,-0.32,1.39,1.39,1.39,1.39,1.39,1.39,0.00,0.00,0.00,1.39,1.39,1.39,0.00,0.00,0.00,-0.32,-0.32,-0.32,1.43,1.43,1.43,1.43,1.43,1.43,0.00,0.00,0.00,1.43,1.43,1.43
SysTheoryQCDScaleDelta400_ggVH,0.00,0.00,0.00,0.00,0.00,0.00,-1.24,-1.24,-1.24,14.92,14.92,14.92,0.00,0.00,0.00,14.92,14.92,14.92,0.00,0.00,0.00,0.00,0.00,0.00,0.00,0.00,0.00,0.00,0.00,0.00,0.00,0.00,0.00,0.00,0.00,0.00,0.00,0.00,0.00,0.00,0.00,0.00,0.00,0.00,0.00,0.00,0.00,0.00,0.00,0.00,0.00,0.00,0.00,0.00
SysTheoryQCDScaleDelta400_qqVH,0.00,0.00,0.00,0.00,0.00,0.00,0.00,0.00,0.00,0.00,0.00,0.00,0.00,0.00,0.00,0.00,0.00,0.00,0.00,0.00,0.00,0.00,0.00,0.00,-0.31,-0.31,-0.31,1.80,1.80,1.80,0.00,0.00,0.00,1.80,1.80,1.80,0.00,0.00,0.00,0.00,0.00,0.00,-0.31,-0.31,-0.31,1.83,1.83,1.83,0.00,0.00,0.00,1.83,1.83,1.83
SysTheoryQCDScaleDelta600_ggVH,0.00,0.00,0.00,0.00,0.00,0.00,0.00,0.00,0.00,-1.08,-1.08,-1.08,0.00,0.00,0.00,15.87,15.87,15.87,0.00,0.00,0.00,0.00,0.00,0.00,0.00,0.00,0.00,0.00,0.00,0.00,0.00,0.00,0.00,0.00,0.00,0.00,0.00,0.00,0.00,0.00,0.00,0.00,0.00,0.00,0.00,0.00,0.00,0.00,0.00,0.00,0.00,0.00,0.00,0.00
SysTheoryQCDScaleDelta600_qqVH,0.00,0.00,0.00,0.00,0.00,0.00,0.00,0.00,0.00,0.00,0.00,0.00,0.00,0.00,0.00,0.00,0.00,0.00,0.00,0.00,0.00,0.00,0.00,0.00,0.00,0.00,0.00,-0.35,-0.35,-0.35,0.00,0.00,0.00,2.21,2.21,2.21,0.00,0.00,0.00,0.00,0.00,0.00,0.00,0.00,0.00,-0.35,-0.35,-0.35,0.00,0.00,0.00,2.20,2.20,2.20
SysTheoryQCDScaleDelta75_ggVH,-100.00,-100.00,-100.00,25.81,25.81,25.81,25.81,25.81,25.81,25.81,25.81,25.81,25.81,25.81,25.81,25.81,25.81,25.81,0.00,0.00,0.00,0.00,0.00,0.00,0.00,0.00,0.00,0.00,0.00,0.00,0.00,0.00,0.00,0.00,0.00,0.00,0.00,0.00,0.00,0.00,0.00,0.00,0.00,0.00,0.00,0.00,0.00,0.00,0.00,0.00,0.00,0.00,0.00,0.00
SysTheoryQCDScaleDelta75_qqVH,0.00,0.00,0.00,0.00,0.00,0.00,0.00,0.00,0.00,0.00,0.00,0.00,0.00,0.00,0.00,0.00,0.00,0.00,-2.89,-2.89,-2.89,3.30,3.30,3.30,3.30,3.30,3.30,3.30,3.30,3.30,3.30,3.30,3.30,3.30,3.30,3.30,-3.01,-3.01,-3.01,3.25,3.25,3.25,3.25,3.25,3.25,3.25,3.25,3.25,3.25,3.25,3.25,3.25,3.25,3.25
SysTheoryQCDScaleDeltaY_ggVH,25.00,25.00,25.00,25.00,25.00,25.00,25.00,25.00,25.00,25.00,25.00,25.00,25.00,25.00,25.00,25.00,25.00,25.00,0.00,0.00,0.00,0.00,0.00,0.00,0.00,0.00,0.00,0.00,0.00,0.00,0.00,0.00,0.00,0.00,0.00,0.00,0.00,0.00,0.00,0.00,0.00,0.00,0.00,0.00,0.00,0.00,0.00,0.00,0.00,0.00,0.00,0.00,0.00,0.00
SysTheoryQCDScaleDeltaY_qqVH,0.00,0.00,0.00,0.00,0.00,0.00,0.00,0.00,0.00,0.00,0.00,0.00,0.00,0.00,0.00,0.00,0.00,0.00,0.70,0.70,0.70,0.70,0.70,0.70,0.70,0.70,0.70,0.70,0.70,0.70,0.70,0.70,0.70,0.70,0.70,0.70,0.60,0.60,0.60,0.60,0.60,0.60,0.60,0.60,0.60,0.60,0.60,0.60,0.60,0.60,0.60,0.60,0.60,0.60
SysTheoryQCDScaleDelta_1_ggVH,-31.67,25.08,25.08,-50.83,26.20,26.20,-100.00,27.67,27.67,-100.00,29.56,29.56,-30.27,25.37,25.37,-100.00,31.68,31.68,0.00,0.00,0.00,0.00,0.00,0.00,0.00,0.00,0.00,0.00,0.00,0.00,0.00,0.00,0.00,0.00,0.00,0.00,0.00,0.00,0.00,0.00,0.00,0.00,0.00,0.00,0.00,0.00,0.00,0.00,0.00,0.00,0.00,0.00,0.00,0.00
SysTheoryQCDScaleDelta_1_qqVH,0.00,0.00,0.00,0.00,0.00,0.00,0.00,0.00,0.00,0.00,0.00,0.00,0.00,0.00,0.00,0.00,0.00,0.00,-2.98,6.83,6.83,-4.11,5.06,5.06,-5.36,5.26,5.26,-6.50,5.44,5.44,-3.60,6.05,6.05,-7.67,5.79,5.79,-3.01,6.79,6.79,-4.49,5.35,5.35,-5.71,5.45,5.45,-6.83,5.61,5.61,-3.78,6.19,6.19,-7.91,5.88,5.88
SysTheoryQCDScaleDelta_2_ggVH,-6.73,-6.73,25.23,-10.45,-10.45,26.17,-25.22,-25.22,27.44,-51.66,-51.66,29.31,-6.41,-6.41,25.50,-85.24,-85.24,31.48,0.00,0.00,0.00,0.00,0.00,0.00,0.00,0.00,0.00,0.00,0.00,0.00,0.00,0.00,0.00,0.00,0.00,0.00,0.00,0.00,0.00,0.00,0.00,0.00,0.00,0.00,0.00,0.00,0.00,0.00,0.00,0.00,0.00,0.00,0.00,0.00
SysTheoryQCDScaleDelta_2_qqVH,0.00,0.00,0.00,0.00,0.00,0.00,0.00,0.00,0.00,0.00,0.00,0.00,0.00,0.00,0.00,0.00,0.00,0.00,-1.04,-1.04,10.34,-1.66,-1.66,7.99,-1.82,-1.82,6.66,-2.20,-2.20,6.67,-1.34,-1.34,9.31,-2.49,-2.49,6.79,-1.11,-1.11,10.95,-1.90,-1.90,8.86,-2.09,-2.09,7.36,-2.36,-2.36,6.97,-1.48,-1.48,10.04,-2.68,-2.68,7.00