region_name,SR_nominal,CRHigh_nominal,error_SR_PS,error_CRHigh_PS
150_250ptv,39.12915,1.905471,-0.0025761377503355056,0.05290139837003082
250_400ptv,11.026153,0.61079,-0.002940206748883952,0.053077439815364856
75_150ptv,97.511615,4.47143,-0.001588168601725582,0.03463430831893758
