region_name,SR_nominal,CRLow_nominal,CRHigh_nominal,error_CRLow_PS,error_SR_PS,error_CRHigh_PS
150_250ptv,111.55722,2.101911,26.524941,-0.3028978135360344,0.0023923424848523987,0.013940885646053185
250_400ptv,35.183503,0.919452,7.765603,-0.2581676324379269,0.006604172445009856,0.0006457740562821315
75_150ptv,165.335314,4.104262,44.235416,-0.1979315244105531,-0.0013464944793531947,0.023397223658605887
