region_name,SR_nominal,CRHigh_nominal,error_SR_PS,error_CRHigh_PS
150_250ptv,10.831375,3.799424,-0.0028971429751171716,0.008259157701827545
250_400ptv,1.764074,1.089957,0.009274978709967097,-0.015011370900692867
75_150ptv,16.141809,2.829192,-0.0008100526165743596,0.004621713413827847
