region_name,SR_nominal,CRHigh_nominal,error_SR_PS,error_CRHigh_PS
150_250ptv,123.860806,5.31617,-0.00479731624598825,0.11177209473455745
250_400ptv,33.602715,1.807357,-0.004626698767836425,0.0860204376260239
75_150ptv,0.0,0.0,,
